^C:\USERS\GRETA\DESKTOP\REFENCIAMUNKAK\TARSAHAZKEZELO_ALKALMAZAS\INGATLANKEZELO\HARMADIKBEADANDO_DY4BZG\ALBERLET.CPP
/c /ZI /JMC /nologo /W3 /WX- /diagnostics:column /sdl /Od /Oy- /D WIN32 /D _DEBUG /D _CONSOLE /D _UNICODE /D UNICODE /Gm- /EHsc /RTC1 /MDd /GS /fp:precise /permissive- /Zc:wchar_t /Zc:forScope /Zc:inline /std:c++17 /Fo"DEBUG\\" /Fd"DEBUG\VC142.PDB" /Gd /TP /analyze- /FC C:\USERS\GRETA\DESKTOP\REFENCIAMUNKAK\TARSAHAZKEZELO_ALKALMAZAS\INGATLANKEZELO\HARMADIKBEADANDO_DY4BZG\ALBERLET.CPP
^C:\USERS\GRETA\DESKTOP\REFENCIAMUNKAK\TARSAHAZKEZELO_ALKALMAZAS\INGATLANKEZELO\HARMADIKBEADANDO_DY4BZG\CSALADIAPARTMAN.CPP
/c /ZI /JMC /nologo /W3 /WX- /diagnostics:column /sdl /Od /Oy- /D WIN32 /D _DEBUG /D _CONSOLE /D _UNICODE /D UNICODE /Gm- /EHsc /RTC1 /MDd /GS /fp:precise /permissive- /Zc:wchar_t /Zc:forScope /Zc:inline /std:c++17 /Fo"DEBUG\\" /Fd"DEBUG\VC142.PDB" /Gd /TP /analyze- /FC C:\USERS\GRETA\DESKTOP\REFENCIAMUNKAK\TARSAHAZKEZELO_ALKALMAZAS\INGATLANKEZELO\HARMADIKBEADANDO_DY4BZG\CSALADIAPARTMAN.CPP
^C:\USERS\GRETA\DESKTOP\REFENCIAMUNKAK\TARSAHAZKEZELO_ALKALMAZAS\INGATLANKEZELO\HARMADIKBEADANDO_DY4BZG\GARAZS.CPP
/c /ZI /JMC /nologo /W3 /WX- /diagnostics:column /sdl /Od /Oy- /D WIN32 /D _DEBUG /D _CONSOLE /D _UNICODE /D UNICODE /Gm- /EHsc /RTC1 /MDd /GS /fp:precise /permissive- /Zc:wchar_t /Zc:forScope /Zc:inline /std:c++17 /Fo"DEBUG\\" /Fd"DEBUG\VC142.PDB" /Gd /TP /analyze- /FC C:\USERS\GRETA\DESKTOP\REFENCIAMUNKAK\TARSAHAZKEZELO_ALKALMAZAS\INGATLANKEZELO\HARMADIKBEADANDO_DY4BZG\GARAZS.CPP
^C:\USERS\GRETA\DESKTOP\REFENCIAMUNKAK\TARSAHAZKEZELO_ALKALMAZAS\INGATLANKEZELO\HARMADIKBEADANDO_DY4BZG\HAZMESTER.CPP
/c /ZI /JMC /nologo /W3 /WX- /diagnostics:column /sdl /Od /Oy- /D WIN32 /D _DEBUG /D _CONSOLE /D _UNICODE /D UNICODE /Gm- /EHsc /RTC1 /MDd /GS /fp:precise /permissive- /Zc:wchar_t /Zc:forScope /Zc:inline /std:c++17 /Fo"DEBUG\\" /Fd"DEBUG\VC142.PDB" /Gd /TP /analyze- /FC C:\USERS\GRETA\DESKTOP\REFENCIAMUNKAK\TARSAHAZKEZELO_ALKALMAZAS\INGATLANKEZELO\HARMADIKBEADANDO_DY4BZG\HAZMESTER.CPP
^C:\USERS\GRETA\DESKTOP\REFENCIAMUNKAK\TARSAHAZKEZELO_ALKALMAZAS\INGATLANKEZELO\HARMADIKBEADANDO_DY4BZG\IBERELHETO.CPP
/c /ZI /JMC /nologo /W3 /WX- /diagnostics:column /sdl /Od /Oy- /D WIN32 /D _DEBUG /D _CONSOLE /D _UNICODE /D UNICODE /Gm- /EHsc /RTC1 /MDd /GS /fp:precise /permissive- /Zc:wchar_t /Zc:forScope /Zc:inline /std:c++17 /Fo"DEBUG\\" /Fd"DEBUG\VC142.PDB" /Gd /TP /analyze- /FC C:\USERS\GRETA\DESKTOP\REFENCIAMUNKAK\TARSAHAZKEZELO_ALKALMAZAS\INGATLANKEZELO\HARMADIKBEADANDO_DY4BZG\IBERELHETO.CPP
^C:\USERS\GRETA\DESKTOP\REFENCIAMUNKAK\TARSAHAZKEZELO_ALKALMAZAS\INGATLANKEZELO\HARMADIKBEADANDO_DY4BZG\INGATLANKEZELO.CPP
/c /ZI /JMC /nologo /W3 /WX- /diagnostics:column /sdl /Od /Oy- /D WIN32 /D _DEBUG /D _CONSOLE /D _UNICODE /D UNICODE /Gm- /EHsc /RTC1 /MDd /GS /fp:precise /permissive- /Zc:wchar_t /Zc:forScope /Zc:inline /std:c++17 /Fo"DEBUG\\" /Fd"DEBUG\VC142.PDB" /Gd /TP /analyze- /FC C:\USERS\GRETA\DESKTOP\REFENCIAMUNKAK\TARSAHAZKEZELO_ALKALMAZAS\INGATLANKEZELO\HARMADIKBEADANDO_DY4BZG\INGATLANKEZELO.CPP
^C:\USERS\GRETA\DESKTOP\REFENCIAMUNKAK\TARSAHAZKEZELO_ALKALMAZAS\INGATLANKEZELO\HARMADIKBEADANDO_DY4BZG\IINGATLAN.CPP
/c /ZI /JMC /nologo /W3 /WX- /diagnostics:column /sdl /Od /Oy- /D WIN32 /D _DEBUG /D _CONSOLE /D _UNICODE /D UNICODE /Gm- /EHsc /RTC1 /MDd /GS /fp:precise /permissive- /Zc:wchar_t /Zc:forScope /Zc:inline /std:c++17 /Fo"DEBUG\\" /Fd"DEBUG\VC142.PDB" /Gd /TP /analyze- /FC C:\USERS\GRETA\DESKTOP\REFENCIAMUNKAK\TARSAHAZKEZELO_ALKALMAZAS\INGATLANKEZELO\HARMADIKBEADANDO_DY4BZG\IINGATLAN.CPP
^C:\USERS\GRETA\DESKTOP\REFENCIAMUNKAK\TARSAHAZKEZELO_ALKALMAZAS\INGATLANKEZELO\HARMADIKBEADANDO_DY4BZG\LAKAS.CPP
/c /ZI /JMC /nologo /W3 /WX- /diagnostics:column /sdl /Od /Oy- /D WIN32 /D _DEBUG /D _CONSOLE /D _UNICODE /D UNICODE /Gm- /EHsc /RTC1 /MDd /GS /fp:precise /permissive- /Zc:wchar_t /Zc:forScope /Zc:inline /std:c++17 /Fo"DEBUG\\" /Fd"DEBUG\VC142.PDB" /Gd /TP /analyze- /FC C:\USERS\GRETA\DESKTOP\REFENCIAMUNKAK\TARSAHAZKEZELO_ALKALMAZAS\INGATLANKEZELO\HARMADIKBEADANDO_DY4BZG\LAKAS.CPP
^C:\USERS\GRETA\DESKTOP\REFENCIAMUNKAK\TARSAHAZKEZELO_ALKALMAZAS\INGATLANKEZELO\HARMADIKBEADANDO_DY4BZG\TARSASHAZ.CPP
/c /ZI /JMC /nologo /W3 /WX- /diagnostics:column /sdl /Od /Oy- /D WIN32 /D _DEBUG /D _CONSOLE /D _UNICODE /D UNICODE /Gm- /EHsc /RTC1 /MDd /GS /fp:precise /permissive- /Zc:wchar_t /Zc:forScope /Zc:inline /std:c++17 /Fo"DEBUG\\" /Fd"DEBUG\VC142.PDB" /Gd /TP /analyze- /FC C:\USERS\GRETA\DESKTOP\REFENCIAMUNKAK\TARSAHAZKEZELO_ALKALMAZAS\INGATLANKEZELO\HARMADIKBEADANDO_DY4BZG\TARSASHAZ.CPP
^C:\USERS\GRETA\DESKTOP\REFENCIAMUNKAK\TARSAHAZKEZELO_ALKALMAZAS\INGATLANKEZELO\INGATLANKEZELO\ALBERLET.CPP
/c /ZI /JMC /nologo /W3 /WX- /diagnostics:column /sdl /Od /Oy- /D WIN32 /D _DEBUG /D _CONSOLE /D _UNICODE /D UNICODE /Gm- /EHsc /RTC1 /MDd /GS /fp:precise /permissive- /Zc:wchar_t /Zc:forScope /Zc:inline /std:c++17 /Fo"DEBUG\\" /Fd"DEBUG\VC142.PDB" /Gd /TP /analyze- /FC C:\USERS\GRETA\DESKTOP\REFENCIAMUNKAK\TARSAHAZKEZELO_ALKALMAZAS\INGATLANKEZELO\INGATLANKEZELO\ALBERLET.CPP
^C:\USERS\GRETA\DESKTOP\REFENCIAMUNKAK\TARSAHAZKEZELO_ALKALMAZAS\INGATLANKEZELO\INGATLANKEZELO\CSALADIAPARTMAN.CPP
/c /ZI /JMC /nologo /W3 /WX- /diagnostics:column /sdl /Od /Oy- /D WIN32 /D _DEBUG /D _CONSOLE /D _UNICODE /D UNICODE /Gm- /EHsc /RTC1 /MDd /GS /fp:precise /permissive- /Zc:wchar_t /Zc:forScope /Zc:inline /std:c++17 /Fo"DEBUG\\" /Fd"DEBUG\VC142.PDB" /Gd /TP /analyze- /FC C:\USERS\GRETA\DESKTOP\REFENCIAMUNKAK\TARSAHAZKEZELO_ALKALMAZAS\INGATLANKEZELO\INGATLANKEZELO\CSALADIAPARTMAN.CPP
^C:\USERS\GRETA\DESKTOP\REFENCIAMUNKAK\TARSAHAZKEZELO_ALKALMAZAS\INGATLANKEZELO\INGATLANKEZELO\GARAZS.CPP
/c /ZI /JMC /nologo /W3 /WX- /diagnostics:column /sdl /Od /Oy- /D WIN32 /D _DEBUG /D _CONSOLE /D _UNICODE /D UNICODE /Gm- /EHsc /RTC1 /MDd /GS /fp:precise /permissive- /Zc:wchar_t /Zc:forScope /Zc:inline /std:c++17 /Fo"DEBUG\\" /Fd"DEBUG\VC142.PDB" /Gd /TP /analyze- /FC C:\USERS\GRETA\DESKTOP\REFENCIAMUNKAK\TARSAHAZKEZELO_ALKALMAZAS\INGATLANKEZELO\INGATLANKEZELO\GARAZS.CPP
^C:\USERS\GRETA\DESKTOP\REFENCIAMUNKAK\TARSAHAZKEZELO_ALKALMAZAS\INGATLANKEZELO\INGATLANKEZELO\HAZMESTER.CPP
/c /ZI /JMC /nologo /W3 /WX- /diagnostics:column /sdl /Od /Oy- /D WIN32 /D _DEBUG /D _CONSOLE /D _UNICODE /D UNICODE /Gm- /EHsc /RTC1 /MDd /GS /fp:precise /permissive- /Zc:wchar_t /Zc:forScope /Zc:inline /std:c++17 /Fo"DEBUG\\" /Fd"DEBUG\VC142.PDB" /Gd /TP /analyze- /FC C:\USERS\GRETA\DESKTOP\REFENCIAMUNKAK\TARSAHAZKEZELO_ALKALMAZAS\INGATLANKEZELO\INGATLANKEZELO\HAZMESTER.CPP
^C:\USERS\GRETA\DESKTOP\REFENCIAMUNKAK\TARSAHAZKEZELO_ALKALMAZAS\INGATLANKEZELO\INGATLANKEZELO\IBERELHETO.CPP
/c /ZI /JMC /nologo /W3 /WX- /diagnostics:column /sdl /Od /Oy- /D WIN32 /D _DEBUG /D _CONSOLE /D _UNICODE /D UNICODE /Gm- /EHsc /RTC1 /MDd /GS /fp:precise /permissive- /Zc:wchar_t /Zc:forScope /Zc:inline /std:c++17 /Fo"DEBUG\\" /Fd"DEBUG\VC142.PDB" /Gd /TP /analyze- /FC C:\USERS\GRETA\DESKTOP\REFENCIAMUNKAK\TARSAHAZKEZELO_ALKALMAZAS\INGATLANKEZELO\INGATLANKEZELO\IBERELHETO.CPP
^C:\USERS\GRETA\DESKTOP\REFENCIAMUNKAK\TARSAHAZKEZELO_ALKALMAZAS\INGATLANKEZELO\INGATLANKEZELO\INGATLANKEZELO.CPP
/c /ZI /JMC /nologo /W3 /WX- /diagnostics:column /sdl /Od /Oy- /D WIN32 /D _DEBUG /D _CONSOLE /D _UNICODE /D UNICODE /Gm- /EHsc /RTC1 /MDd /GS /fp:precise /permissive- /Zc:wchar_t /Zc:forScope /Zc:inline /std:c++17 /Fo"DEBUG\\" /Fd"DEBUG\VC142.PDB" /Gd /TP /analyze- /FC C:\USERS\GRETA\DESKTOP\REFENCIAMUNKAK\TARSAHAZKEZELO_ALKALMAZAS\INGATLANKEZELO\INGATLANKEZELO\INGATLANKEZELO.CPP
^C:\USERS\GRETA\DESKTOP\REFENCIAMUNKAK\TARSAHAZKEZELO_ALKALMAZAS\INGATLANKEZELO\INGATLANKEZELO\IINGATLAN.CPP
/c /ZI /JMC /nologo /W3 /WX- /diagnostics:column /sdl /Od /Oy- /D WIN32 /D _DEBUG /D _CONSOLE /D _UNICODE /D UNICODE /Gm- /EHsc /RTC1 /MDd /GS /fp:precise /permissive- /Zc:wchar_t /Zc:forScope /Zc:inline /std:c++17 /Fo"DEBUG\\" /Fd"DEBUG\VC142.PDB" /Gd /TP /analyze- /FC C:\USERS\GRETA\DESKTOP\REFENCIAMUNKAK\TARSAHAZKEZELO_ALKALMAZAS\INGATLANKEZELO\INGATLANKEZELO\IINGATLAN.CPP
^C:\USERS\GRETA\DESKTOP\REFENCIAMUNKAK\TARSAHAZKEZELO_ALKALMAZAS\INGATLANKEZELO\INGATLANKEZELO\LAKAS.CPP
/c /ZI /JMC /nologo /W3 /WX- /diagnostics:column /sdl /Od /Oy- /D WIN32 /D _DEBUG /D _CONSOLE /D _UNICODE /D UNICODE /Gm- /EHsc /RTC1 /MDd /GS /fp:precise /permissive- /Zc:wchar_t /Zc:forScope /Zc:inline /std:c++17 /Fo"DEBUG\\" /Fd"DEBUG\VC142.PDB" /Gd /TP /analyze- /FC C:\USERS\GRETA\DESKTOP\REFENCIAMUNKAK\TARSAHAZKEZELO_ALKALMAZAS\INGATLANKEZELO\INGATLANKEZELO\LAKAS.CPP
^C:\USERS\GRETA\DESKTOP\REFENCIAMUNKAK\TARSAHAZKEZELO_ALKALMAZAS\INGATLANKEZELO\INGATLANKEZELO\TARSASHAZ.CPP
/c /ZI /JMC /nologo /W3 /WX- /diagnostics:column /sdl /Od /Oy- /D WIN32 /D _DEBUG /D _CONSOLE /D _UNICODE /D UNICODE /Gm- /EHsc /RTC1 /MDd /GS /fp:precise /permissive- /Zc:wchar_t /Zc:forScope /Zc:inline /std:c++17 /Fo"DEBUG\\" /Fd"DEBUG\VC142.PDB" /Gd /TP /analyze- /FC C:\USERS\GRETA\DESKTOP\REFENCIAMUNKAK\TARSAHAZKEZELO_ALKALMAZAS\INGATLANKEZELO\INGATLANKEZELO\TARSASHAZ.CPP
