Bp	Sg	Al	Su	Rbc	Bu	Sc	Sod	Pot	Hemo	Wbcc	Rbcc	Htn	Class
80	1.02	1	0	1	36	1.2	137.53	4.63	15.4	7800	5.2	1	1
50	1.02	4	0	1	18	0.8	137.53	4.63	11.3	6000	4.71	0	1
80	1.01	2	3	1	53	1.8	137.53	4.63	9.6	7500	4.71	0	1
70	1.005	4	0	1	56	3.8	111	2.5	11.2	6700	3.9	1	1
80	1.01	2	0	1	26	1.4	137.53	4.63	11.6	7300	4.6	0	1
90	1.015	3	0	1	25	1.1	142	3.2	12.2	7800	4.4	1	1
70	1.01	0	0	1	54	24	104	4	12.4	8406	4.71	0	1
76	1.015	2	4	1	31	1.1	137.53	4.63	12.4	6900	5	0	1
100	1.015	3	0	1	60	1.9	137.53	4.63	10.8	9600	4	1	1
90	1.02	2	0	0	107	7.2	114	3.7	9.5	12100	3.7	1	1
60	1.01	2	4	1	55	4	137.53	4.63	9.4	8406	4.71	1	1
70	1.01	3	0	0	60	2.7	131	4.2	10.8	4500	3.8	1	1
70	1.015	3	1	1	72	2.1	138	5.8	9.7	12200	3.4	1	1
70	1.02	1	0	1	86	4.6	135	3.4	9.8	8406	4.71	1	1
80	1.01	3	2	1	90	4.1	130	6.4	5.6	11000	2.6	1	1
80	1.015	3	0	1	162	9.6	141	4.9	7.6	3800	2.8	1	1
70	1.015	2	0	1	46	2.2	138	4.1	12.6	8406	4.71	0	1
80	1.02	1	0	1	87	5.2	139	3.7	12.1	8406	4.71	1	1
100	1.025	0	3	1	27	1.3	135	4.3	12.7	11400	4.3	1	1
60	1.015	1	0	1	31	1.6	137.53	4.63	10.3	5300	3.7	1	1
80	1.015	2	0	0	148	3.9	135	5.2	7.7	9200	3.2	1	1
90	1.02	1	0	1	180	76	4.5	4.63	10.9	6200	3.6	1	1
80	1.025	4	0	1	163	7.7	136	3.8	9.8	6900	3.4	1	1
70	1.01	0	0	1	57	3.07	137.53	4.63	12.53	8406	4.71	0	1
100	1.015	4	0	1	50	1.4	129	4	11.1	8300	4.6	1	1
60	1.025	0	0	1	75	1.9	141	5.2	9.9	8400	3.7	1	1
80	1.015	0	0	1	45	2.4	140	3.4	11.6	10300	4	1	1
70	1.01	3	4	1	87	2.7	130	4	12.5	9600	4.1	1	1
70	1.02	1	3	1	31	1.4	137.53	4.63	12.53	8406	4.71	0	1
70	1.005	1	0	0	28	1.4	137.53	4.63	12.9	8406	4.71	0	1
70	1.02	1	0	1	155	7.3	132	4.9	12.53	8406	4.71	1	1
90	1.015	3	0	1	33	1.5	141	4.6	10.1	7800	4	0	1
90	1.01	1	1	1	39	1.5	133	4.9	11.3	9600	4	1	1
100	1.02	2	0	0	55	2.5	137.53	4.63	10.1	8406	4.71	1	1
70	1.01	1	0	1	153	5.2	137.53	4.63	12.53	8406	4.71	0	1
90	1.02	2	1	0	39	2	137.53	4.63	12	9800	4.9	1	1
70	1.015	1	0	1	29	1.8	133	3.9	10.3	8406	4.71	1	1
80	1.02	1	0	1	65	3.4	141	4.7	9.7	6900	2.5	1	1
80	1.02	3	0	0	103	4.1	132	5.9	12.5	8406	4.71	1	1
80	1.01	2	2	1	70	3.4	136	4.2	13	9800	4.2	1	1
90	1.01	2	0	1	80	2.1	137.53	4.63	11.1	9100	4.1	1	1
70	1.01	0	0	1	20	0.7	137.53	4.63	12.53	8406	4.71	0	1
100	1.01	0	0	1	29	1	139	4.2	9.7	9200	4.5	1	1
80	1.01	1	0	0	202	10.8	134	3.4	7.9	7900	3.1	0	1
80	1.01	3	0	0	77	6.3	134	4.8	9.7	8406	4.71	1	1
80	1.02	3	0	1	89	5.9	130	4.9	9.3	8406	4.71	1	1
70	1.015	0	0	1	24	1.2	142	4.2	12.4	6400	4.7	0	1
80	1.01	3	0	1	17	0.8	137.53	4.63	15	8600	4.71	0	1
70	1.005	0	0	1	32	0.9	125	4	10	18900	3.5	1	1
70	1.01	2	0	1	72	3	137.53	4.63	9.7	21600	3.5	1	1
60	1.02	1	0	1	114	3.25	142	4.3	8.6	11000	3.8	1	1
100	1.015	3	0	1	66	1.6	136	4.4	10.3	8406	4.71	1	1
90	1.015	0	0	1	38	2.2	137.53	4.63	10.9	4300	3.7	0	1
80	1.015	0	5	1	24	1	137.53	4.63	13.6	8500	4.7	1	1
80	1.01	2	2	1	57	3.4	136	4.2	13	9800	4.2	1	1
80	1.005	3	0	0	57	3.07	137.53	4.63	9.5	8406	4.71	0	1
70	1.015	3	4	1	164	9.7	131	4.4	10.2	11300	3.4	1	1
90	1.02	1	0	1	155	7.3	132	4.9	12.53	8406	4.71	1	1
80	1.02	2	0	0	142	4.6	138	5.8	10.5	7200	4.3	1	1
100	1.02	1	0	1	96	6.4	137.53	4.63	6.6	8406	4.71	1	1
90	1.02	1	0	1	66	3.2	138	6.6	12.53	8406	4.71	1	1
80	1.01	1	3	1	391	32	163	39	12.53	8406	4.71	0	1
60	1.02	3	0	1	15	0.6	138	4	11	7700	3.8	1	1
70	1.015	1	0	0	111	6.1	131	3.7	7.5	8406	4.71	0	1
80	1.01	0	0	1	57	3.07	137.53	4.63	9.8	8406	4.71	0	1
90	1.01	1	0	1	20	1.1	137.53	4.63	15	8406	4.71	0	1
70	1.02	2	0	0	55	1.6	131	4.8	12.53	8406	4.71	1	1
80	1.02	3	0	1	57	3.07	137.53	4.63	12.53	8406	4.71	0	1
70	1.01	2	0	1	73	3.3	137.53	4.63	10.9	8406	4.71	0	1
70	1.015	0	4	1	20	1.1	137.53	4.63	15.6	6900	6	0	1
80	1.015	0	4	1	19	0.7	137	4.4	15.2	8300	5.2	1	1
60	1.01	1	0	1	92	3.3	141	4	9.8	14600	3.2	1	1
90	1.01	3	3	1	35	1.3	137.53	4.63	10.3	8406	4.71	1	1
100	1.015	2	0	0	107	6.7	132	4.4	4.8	6300	4.71	1	1
90	1.015	2	0	0	107	6.7	131	4.8	9.1	6400	3.4	1	1
76	1.015	1	0	1	16	0.7	138	3.2	8.1	8406	4.71	0	1
80	1.005	4	0	0	139	8.5	132	5.5	10.3	6200	4	0	1
70	1.01	1	0	1	48	3.2	137	5	11.9	7100	3.7	1	1
80	1.02	1	0	1	85	3.2	141	3.5	10.1	8406	4.71	1	1
80	1.01	1	0	1	55	1.8	137.53	4.63	13.5	11800	5	1	1
80	1.01	0	0	1	98	2.8	133	5	10.8	9400	3.8	1	1
90	1.02	1	0	1	45	2.4	128	4.4	8.3	5500	3.7	1	1
70	1.02	1	0	1	77	1.9	140	3.9	12.53	8406	4.71	1	1
70	1.015	1	0	1	19	1	134	3.6	12.53	8406	4.71	1	1
70	1.01	3	0	1	186	15	135	7.6	7.1	3800	2.1	1	1
70	1.015	2	0	1	46	1.5	137.53	4.63	9.9	8406	4.71	0	1
80	1.02	1	0	1	37	1.9	137.53	4.63	12.53	8406	4.71	0	1
100	1.005	1	0	1	47	2.9	137.53	4.63	11.1	5800	5	1	1
110	1.01	4	0	1	52	2.2	137.53	4.63	12.53	13200	4.7	1	1
70	1.02	0	0	1	32	1.4	139	4.7	12.53	8406	4.71	0	1
100	1.01	2	2	1	35	3.2	143	3.5	13	9800	4.2	1	1
70	1.015	4	1	0	26	1.7	136	3.8	16.1	12500	5.6	0	1
70	1.01	3	0	1	82	3.6	133	4.4	10.4	5600	3.6	1	1
100	1.01	3	2	0	90	5.6	140	2.9	9.2	7000	3.2	1	1
70	1.01	0	0	1	66	1.6	137	4.5	11.6	11900	3.9	0	1
90	1.015	1	0	1	25	1.1	131	3.7	12.53	8406	4.71	1	1
80	1.01	1	1	1	32	2.7	137.53	4.63	11.2	8406	4.71	0	1
60	1.015	1	0	1	51	2.2	132	3.8	10	9100	4	1	1
140	1.02	1	0	1	106	6.5	135	4.3	6.2	5800	2.3	1	1
180	1.02	0	4	1	24	1.2	139	3.9	11.2	10400	4.2	1	1
70	1.015	4	0	0	22	0.9	133	3.8	12.53	8406	4.71	0	1
90	1.015	2	0	1	80	4.4	139	5.7	11.3	10700	3.9	0	1
60	1.01	0	0	1	32	2.1	141	4.2	13.9	7000	4.71	0	1
70	1.015	2	0	1	217	10.2	137.53	4.63	10.2	12700	4.2	1	1
90	1.02	1	0	1	88	2	137.53	4.63	12.53	8406	4.71	1	1
80	1.015	0	0	1	32	11.5	139	4	14.1	6800	5.2	0	1
90	1.02	1	0	1	118	6.1	127	4.4	6	6500	4.71	1	1
100	1.015	1	4	1	53	2.8	139	4.5	11.2	13600	4.4	1	1
80	1.015	0	0	1	15	1	141	4.2	11.8	10200	4.2	0	1
70	1.02	1	0	1	50.1	1.9	137.53	4.63	11.7	8406	4.71	0	1
90	1.015	0	0	1	19	2	142	3.8	11.7	11400	4.7	0	1
80	1.01	3	3	1	71	4.4	128	5.4	10	9000	3.9	1	1
60	1.015	3	0	0	34	1.2	137.53	4.63	10.8	8406	4.71	0	1
90	1.015	0	2	1	57	3.07	137.53	4.63	12.53	9800	4.71	0	1
60	1.015	3	0	0	51	1.8	137.53	4.63	12.1	10300	4.71	0	1
80	1.01	0	0	1	28	0.9	137.53	4.63	12.4	5600	4.3	0	1
70	1.015	4	0	0	16	0.5	137.53	4.63	12.53	8406	4.71	0	1
70	1.02	0	0	1	36	1.3	139	3.7	12.5	9800	4.4	0	1
70	1.01	3	0	1	25	1.2	137.53	4.63	11.4	8406	4.71	0	1
70	1.01	0	0	1	27	1.2	137.53	4.63	12.53	8406	4.71	0	1
90	1.025	1	3	1	40	2.2	137	5.3	12.6	8406	4.71	0	1
60	1.02	3	0	1	21	1.3	137	3.4	15	8406	4.71	1	1
70	1.02	1	0	1	219	12.2	130	3.8	6	8406	4.71	1	1
80	1.015	2	3	1	30	1.1	137.53	4.63	14	14900	4.71	0	1
100	1.015	0	0	1	98	2.5	137.53	4.63	9.1	5500	3.6	1	1
90	1.02	1	0	1	36	2.5	131	4.3	12.53	8406	4.71	1	1
90	1.015	0	0	1	125	4	136	4.6	12	8200	4.5	1	1
60	1.015	4	0	1	125	5.3	136	4.9	11.4	15200	4.3	1	1
90	1.015	4	3	1	166	5.6	133	47	8.1	5000	2.9	1	1
70	1.025	1	0	1	49	1.4	135	4.7	11.1	8406	4.71	1	1
90	1.01	2	0	1	208	9.2	134	4.8	8.2	16300	2.7	0	1
50	1.01	0	0	1	25	0.6	137.53	4.63	11.8	12400	4.71	0	1
76	1.02	1	0	1	176	13.8	136	4.5	8.6	13200	2.7	1	1
100	1.015	4	0	1	125	5.3	136	4.9	12	8400	8	1	1
100	1.01	1	0	1	57	16.9	138	5.2	10.8	10200	3.8	0	1
80	1.015	0	2	1	24	1.3	140	4	13.2	8406	4.71	0	1
90	1.02	1	0	1	68	2.8	146	6.3	9.3	8406	4.71	1	1
60	1.01	2	0	1	86	4	134	5.1	10	9200	4.71	1	1
76	1.01	1	0	1	51	1.6	142	3.5	12.53	8406	4.71	0	1
70	1.015	2	0	1	68	2.8	132	4.1	11.1	8406	4.71	1	1
70	1.01	0	4	1	40	1.2	142	5.6	12.53	8406	4.71	0	1
70	1.01	1	0	1	106	6	137	4.9	6.1	6500	4.71	1	1
90	1.02	1	0	1	145	7.1	135	5.3	12.53	8406	4.71	0	1
80	1.015	1	4	0	165	18	135	4.7	12.53	8406	4.71	0	1
90	1.01	2	0	0	53	2.3	136	5.2	11.1	10500	4.1	0	1
90	1.015	5	0	0	322	13	126	4.8	8	4200	3.3	1	1
100	1.01	1	3	0	23	1	139	4	12.53	8406	4.71	0	1
60	1.01	3	1	1	36	1.7	130	3	7.9	15200	3	1	1
60	1.02	1	0	1	26	48.1	137.53	4.63	12.53	8406	4.71	1	1
70	1.02	1	0	0	29	1	137.53	4.63	10.5	8406	4.71	1	1
60	1.025	3	0	1	27	0.9	137.53	4.63	12.3	6700	4.71	0	1
90	1.02	1	0	1	46	1.7	141	5.5	9.6	8406	4.71	1	1
70	1.01	0	0	1	20	0.8	133	3.5	10.9	8406	4.71	0	1
90	1.01	2	1	0	235	14.2	132	3.4	8.3	14600	2.9	1	1
90	1.005	4	3	0	132	16.4	140	4.2	8.4	8406	3	1	1
70	1.02	3	0	0	40	1.8	137.53	4.63	11.1	4700	4.71	0	1
90	1.015	2	0	1	76	3.3	137.53	4.63	12.53	8406	4.71	0	1
70	1.025	3	0	1	42	1.7	136	4.7	12.6	7900	3.9	1	1
60	1.02	3	2	1	48	1.5	132	4	10.9	8406	4.71	1	1
80	1.01	1	0	0	35	1.3	122	3.5	10.4	10900	4.3	0	1
60	1.02	1	0	1	39	2.1	147	4.2	10.9	9400	2.4	1	1
76	1.015	3	0	0	57	3.07	137.53	4.63	14.3	10200	4.8	1	1
70	1.02	1	0	1	34	1.5	124	4.1	9.8	6000	4.71	0	1
80	1.01	0	0	1	40	2	140	4.1	9	8100	3.2	1	1
76	1.015	0	0	1	15	0.8	137	4.2	14.3	9500	5.4	0	1
80	1.02	0	2	1	57	3.07	137.53	4.63	12.53	8406	4.71	0	1
60	1.02	1	0	1	44	3.9	127	4.3	12.53	8406	4.71	0	1
70	1.02	0	0	0	19	0.9	137.53	4.63	12.7	2200	4.71	0	1
70	1.015	4	4	1	28	1.5	137.53	4.63	11	6700	4.71	1	1
70	1.01	0	2	1	68	2.8	137.53	4.63	8.7	8406	4.71	1	1
70	1.015	2	5	1	41	1.7	131	3.9	12.5	9600	4.4	1	1
70	1.02	3	0	1	60	2.6	115	5.7	8.7	12800	3.1	1	1
80	1.01	1	2	1	113	2.9	130	2.5	10.6	12800	4.9	0	1
70	1.015	1	0	0	1.5	7.3	145	2.8	13.1	11200	4.71	0	1
70	1.02	1	0	1	146	7.5	141	4.7	11	8600	4.6	0	1
50	1.01	0	0	1	58	2.2	113	3	12.53	4200	3.4	1	1
90	1.01	4	0	1	40	1.7	125	3.5	8.3	12400	3.9	0	1
80	1.015	2	1	1	133	2.5	137.53	4.63	13.2	8406	4.71	0	1
90	1.02	2	0	0	153	2.7	139	4.3	9.8	9800	4.71	0	1
90	1.01	2	0	1	53	2.3	137.53	4.63	11.9	8406	4.71	0	1
90	1.01	1	4	0	56	1.9	137.53	4.63	10.3	8406	4.71	0	1
70	1.025	2	0	1	52	2.2	136	3.8	10	19100	3.7	0	1
80	1.02	0	0	1	23	0.8	140	4.1	11.3	8406	4.71	0	1
70	1.015	0	0	1	106	6.5	135	4.3	12.53	8406	4.71	0	1
60	1.015	3	2	1	137	3.3	133	4.5	11.3	5800	3.6	1	1
76	1.02	1	0	1	23	0.6	138	4.4	12	8406	4.71	0	1
50	1.02	4	0	1	46	1	135	3.8	12.53	8406	4.71	0	1
76	1.01	2	0	1	22	0.7	137.53	4.63	10.7	12300	4.71	0	1
76	1.02	1	0	1	66	2.5	142	3.6	12.2	8406	4.71	0	1
60	1.01	4	1	0	58	4.3	137	5.4	9.5	7500	3.4	1	1
60	1.01	4	0	0	67	1	135	4.9	9.9	16700	4.8	0	1
70	1.01	3	0	1	115	6	134	2.7	9.1	9200	3.4	1	1
110	1.015	0	0	1	16	0.9	137.53	4.63	12.53	8406	4.71	0	1
90	1.025	1	0	0	223	18.1	113	6.5	5.5	2600	2.8	1	1
70	1.01	2	0	1	49	1.2	137.53	4.63	12.53	8406	4.71	1	1
90	1.02	2	1	0	98.6	3.3	138	3.9	5.8	8406	4.71	1	1
100	1.01	3	0	0	158	11.8	122	3.2	8.1	9600	3.5	1	1
80	1.02	1	0	1	111	9.3	124	5.3	6.8	4300	3	1	1
100	1.02	4	2	1	40	3.2	137	4.7	11.2	26400	3.9	1	1
80	1.015	0	0	1	37	1.5	140	5.2	8.8	10700	3.2	1	1
90	1.025	1	0	1	89	3	140	4.1	12	7900	3.9	1	1
70	1.02	1	0	1	94	7.3	137	4.3	7.9	8406	4.71	1	1
60	1.02	1	0	1	74	2.9	135	5.9	8	8406	4.71	0	1
90	1.02	1	0	1	80	6.8	142	5.5	8.5	8406	4.71	1	1
90	1.01	4	2	1	82	13.5	145	6.3	8.8	8406	4.71	1	1
70	1.02	1	0	1	28	2.1	137.53	4.63	12.6	8406	4.71	1	1
70	1.01	1	0	1	96	3.9	135	4	13.8	8406	4.71	1	1
70	1.01	0	0	1	50	2.2	137.53	4.63	12	10400	4.6	1	1
80	1.02	1	0	1	37	1.5	137.53	4.63	12.3	6900	4.9	1	1
70	1.02	0	0	1	57	3.07	137.53	4.63	11.5	6900	4.71	0	1
100	1.015	4	2	1	132	12.8	135	5.7	7.3	9800	3.9	1	1
120	1.015	0	0	1	18	1.2	137.53	4.63	12.53	8406	4.71	0	1
70	1.015	3	4	1	150	11.9	132	5.6	10.9	8800	3.4	1	1
80	1.01	3	1	1	73	3.9	137	4.9	10.9	7400	3.7	1	1
80	1.015	0	0	1	30	1	137.53	4.63	13.7	4900	5.2	0	1
76	1.01	3	0	1	57	3.07	137.53	4.63	12.53	8406	4.71	0	1
70	1.01	0	0	1	15	3.07	137.53	4.63	12.8	8406	4.71	0	1
100	1.01	1	0	1	61	1.8	141	4.4	12.2	10500	4.3	0	1
90	1.015	0	0	1	19	0.8	137.53	4.63	11.8	7000	4.71	0	1
90	1.01	0	0	1	57	2.5	137.53	4.63	9.8	8000	3.3	1	1
80	1.01	0	0	1	57	3.07	137.53	4.63	11.9	8800	4.71	0	1
70	1.02	1	0	1	30	1.7	138	5.3	12.53	8406	4.71	1	1
60	1.02	1	0	1	68	1.8	137.53	4.63	12.53	8406	4.71	1	1
90	1.01	0	3	1	30	1.3	136	4.1	13	9200	4.6	1	1
60	1.02	0	0	1	28	2.2	138	3.8	12.53	8406	4.71	0	1
90	1.01	3	5	0	95	2.7	131	3.8	11.5	12000	4.5	1	1
100	1.015	4	2	0	54	7.2	140	4.6	7.9	7500	3.4	1	1
80	1.015	0	0	1	48	1.6	137.53	4.63	11.3	7200	3.8	1	1
70	1.02	1	0	1	52	2.5	137.53	4.63	12.53	8406	4.71	1	1
50	1.01	3	0	1	191	12	114	2.9	9.6	15700	3.8	0	1
60	1.01	2	0	1	17	1.7	130	4.3	12.53	9500	4.71	1	1
90	1.02	1	0	1	51	2.8	138	3.7	11.5	8406	4.71	1	1
90	1.015	1	0	0	57	3.07	137.53	4.63	12.53	8406	4.71	0	1
100	1.015	2	0	1	20	1.6	146	4.5	12.53	8406	4.71	0	1
100	1.01	0	0	0	19	1.3	137.53	4.63	15	4100	5.2	1	1
70	1.01	2	0	1	93	2.3	137.53	4.63	7.9	5700	4.71	0	1
80	1.02	1	0	1	66	2	136	5.4	9.1	8406	4.71	1	1
70	1.015	2	2	1	53	2.2	137.53	4.63	12.7	9600	4.71	1	1
100	1.02	1	0	1	241	13.4	127	4.8	9.4	8406	4.71	1	1
90	1.015	2	0	1	50	1.6	137	4.1	11.9	8406	4.71	0	1
70	1.015	1	0	1	46	1.4	137.53	4.63	11.4	5000	4.1	1	1
70	1.015	1	0	1	45	1.5	140	3.3	10.4	4200	3.9	0	1
70	1.01	4	3	1	96	6.3	120	3.9	9.4	11500	3.3	1	1
90	1.02	2	1	1	48	2.4	138	2.9	13.4	11000	6.1	1	1
90	1.015	3	2	1	64	2.8	135	4.1	12.2	9800	4.6	1	1
100	1.02	1	0	1	79	5.3	135	6.3	6.3	7200	2.6	1	1
110	1.015	3	0	0	215	15.2	120	5.7	8.6	5000	2.5	1	1
90	1.025	1	0	1	18	1.2	140	4.2	12.53	8406	4.71	0	1
70	1.01	1	3	0	55	1.7	138	4.5	12.6	10200	4.1	1	1
90	1.01	4	1	1	309	13.3	124	6.5	3.1	5400	2.1	1	1
80	1.025	0	0	1	10	1.2	135	5	15	10400	4.5	0	0
80	1.025	0	0	1	36	1	150	4.6	17	9800	5	0	0
80	1.025	0	0	1	49	0.6	147	4.4	15.9	9100	4.7	0	0
80	1.025	0	0	1	17	1.2	135	4.7	15.4	6200	6.2	0	0
60	1.025	0	0	1	38	0.8	135	3.7	13	8300	5.2	0	0
80	1.025	0	0	1	27	1.2	144	3.9	13.6	9200	6.3	0	0
80	1.025	0	0	1	10	0.5	146	5	14.5	10700	5.1	0	0
60	1.02	0	0	1	36	0.7	135	3.7	14	9100	5.8	0	0
80	1.02	0	0	1	20	0.5	140	3.5	13.9	8400	5.5	0	0
80	1.02	0	0	1	31	1.2	135	5	16.1	4300	5.2	0	0
80	1.02	0	0	1	38	1	147	3.8	14.1	9400	5.3	0	0
80	1.02	0	0	1	32	1.2	139	3.9	17	5600	4.9	0	0
80	1.02	0	0	1	18	0.9	135	3.6	15.5	7200	5.4	0	0
80	1.02	0	0	1	46	1.2	137	5	16.2	8600	5.2	0	0
80	1.02	0	0	1	24	0.7	140	4.1	14.4	5000	4.5	0	0
80	1.02	0	0	1	40	0.6	150	4.5	14.2	10500	5	0	0
80	1.02	0	0	1	17	1.2	135	4.8	13.2	6800	5.3	0	0
80	1.025	0	0	1	33	0.9	146	3.9	13.9	9500	4.8	0	0
80	1.02	1	0	1	49	1	140	5	16.3	8500	4.9	0	0
80	1.025	0	0	1	19	1.2	142	4.9	15	6900	5.3	0	0
80	1.025	0	0	1	34	1.1	145	4	14.3	7200	5	0	0
80	1.025	0	0	1	25	0.5	144	4.8	13.8	9000	4.5	0	0
80	1.025	0	0	1	15	1.2	135	5	14.8	5600	5.5	0	0
80	1.02	0	0	1	35	0.9	140	4.1	12.53	8406	4.71	0	0
80	1.02	0	0	1	23	0.7	141	4.2	14.4	8406	4.71	0	0
80	1.02	0	0	1	22	1.2	139	4.6	16.5	4700	4.6	0	0
60	1.025	0	0	1	57	3.07	137	4.7	14	4500	5.5	0	0
60	1.025	0	0	1	46	1	135	5	15.7	6300	4.8	0	0
60	1.02	0	0	1	44	1.2	142	4.9	14.5	9400	6.4	0	0
70	1.025	0	0	1	23	0.6	140	4.7	16.3	5800	5.6	0	0
80	1.02	1	0	1	33	0.9	144	4.5	13.3	8100	5.2	0	0
80	1.025	0	0	1	50	1.2	147	5	15.5	9100	6	0	0
70	1.02	0	0	1	44	1	135	3.8	14.6	5500	4.8	0	0
70	1.02	0	0	1	57	3.07	137.53	4.63	16.4	10800	5.7	0	0
80	1.025	0	0	1	37	1.2	142	4	16.9	6700	6	0	0
70	1.02	0	0	1	19	0.7	135	3.9	16	5300	5.9	0	0
70	1.02	0	0	1	18	0.8	145	5	14.7	9800	6	0	0
70	1.025	0	0	1	22	0.6	137	3.8	13.4	8406	4.71	0	0
70	1.025	0	0	1	46	1.2	135	4.9	15.9	11000	5.1	0.37	0
70	1.02	0	0	1	32	0.9	143	4.7	16.6	7100	5.3	0	0
70	1.02	0	0	1	28	0.6	146	3.5	14.8	8400	5.9	0	0
80	1.025	0	0	1	44	1	140	4.9	14.9	7000	5.7	0	0
80	1.02	0	0	1	42	0.5	139	5	16.7	10200	5	0	0
76	1.02	0	0	1	19	1.2	150	4.8	14.9	4700	5.4	0	0
60	1.02	0	0	1	50	0.7	135	5	14.3	8300	5.8	0	0
70	1.02	1	0	1	25	0.9	150	3.6	15	9600	6.5	0	0
70	1.02	0	0	1	38	0.6	140	5	16.8	6300	5.9	0	0
60	1.025	0	0	1	26	1	146	4.9	15.8	7700	5.2	0.37	0
60	1.02	0	0	1	49	1.2	135	4.5	13.5	8600	4.9	0	0
60	1.02	0	0	1	48	0.5	150	3.5	15.1	11000	4.7	0	0
60	1.02	0	0	1	26	0.7	141	4.2	15	9200	5.8	0	0
60	1.025	0	0	1	33	0.9	147	4.5	16.9	7200	5	0	0
70	1.02	0	0	1	44	1.2	145	5	14.8	8406	4.71	0	0
70	1.02	0	0	1	26	1.1	137.53	4.63	17	6700	6.1	0	0
80	1.025	0	0	1	38	0.6	135	3.9	13.1	6200	4.5	0	0
80	1.02	0	0	1	25	0.8	138	5	17.1	9100	5.2	0	0
80	1.02	0	0	1	30	1.2	140	4.5	15.2	4300	5.7	0	0
60	1.02	0	0	1	17	0.5	150	3.5	13.6	7900	4.5	0	0
80	1.025	0	0	1	46	0.6	135	4.9	13.9	6900	4.9	0	0
60	1.02	0	0	1	25	1.2	139	5	17.2	8100	5.9	0	0
60	1.02	0	0	1	27	0.7	142	4.9	13.2	11000	5.4	0	0
60	1.025	0	0	1	18	1.1	147	4.7	13.7	7500	5.6	0	0
70	1.02	0	0	1	57	3.07	135	4.1	15.3	6300	6.1	0	0
80	1.02	0	0	1	28	0.9	142	4.8	17.3	8200	4.8	0	0
70	1.025	0	0	1	46	0.6	145	5	15.6	9400	4.7	0	0
70	1.025	0	0	1	57	3.07	137.53	4.63	13.8	7800	4.4	0	0
76	1.02	0	0	1	30	0.5	135	4.9	15.4	5000	5.2	0	0
70	1.02	0	0	1	48	1.2	139	4.3	15	8100	4.9	0	0
70	1.025	0	0	1	29	0.7	137	3.5	17.4	7000	5.3	0	0
60	1.02	0	0	1	15	1.1	135	4.4	12.53	8406	4.71	0	0
60	1.02	0	0	1	49	1.2	150	4.7	15.7	10400	6.2	0	0
60	1.02	0	0	1	39	1	144	3.5	13.9	9600	4.8	0	0
60	1.02	1	0	1	40	0.5	140	4.6	16	4500	4.9	0	0
80	1.025	0	0	1	30	1.1	143	5	15.9	7800	4.5	0	0
80	1.02	0	0	1	15	0.7	150	4.9	12.53	8406	4.71	0	0
80	1.02	0	0	1	50	1.2	140	3.5	14	6700	6.5	0	0
60	1.02	0	0	1	25	1.1	141	4.7	15.8	8300	5.2	0	0
60	1.025	0	0	1	31	0.8	150	4.6	13.4	10700	5.8	0	0
70	1.02	0	0	1	29	0.6	145	4.9	12.53	8600	6.5	0	0
60	1.025	0	0	1	25	0.9	146	3.5	14.1	7800	5.1	0	0
80	1.02	0	0	1	32	1.1	135	3.9	12.53	8406	4.71	0	0
70	1.025	0	0	1	39	0.7	147	4.7	13.5	6700	4.5	0	0
70	1.025	0	0	1	33	1	150	5	15.3	10500	6.1	0	0
80	1.02	0	0	1	46	1.2	142	4	17.7	4300	5.5	0	0
80	1.025	0	0	1	57	3.07	136	3.5	15.4	5600	4.5	0	0
60	1.02	0	0	1	45	0.5	139	4.8	14.2	10700	5.6	0	0
60	1.02	0	0	1	27	0.5	137.53	4.63	15.2	9200	5.2	0	0
70	1.025	0	0	1	40	0.9	141	4.9	14	7500	6.2	0	0
80	1.02	0	0	1	34	0.8	147	3.5	17.8	4700	4.5	0	0
70	1.02	0	0	1	42	0.5	136	3.5	13.3	7000	4.9	0	0
70	1.025	0	0	1	29	1.1	142	4.5	14.3	6700	5.9	0	0
70	1.025	0	0	1	37	0.9	150	5	13.4	7300	4.7	0	0
60	1.02	0	0	1	46	0.5	138	4.2	15	7700	6.3	0	0
60	1.025	0	0	1	35	0.8	135	4.1	16.2	5500	5.7	0	0
60	1.02	0	0	1	27	0.7	150	3.3	14.4	8100	4.7	0	0
60	1.025	0	0	1	18	1.2	138	4.3	13.5	7900	6.4	0	0
60	1.02	1	0	1	41	0.9	141	4.4	15.5	4300	5.8	0	0
60	1.025	0	0	1	25	1	144	5	17.8	7200	5.5	0	0
80	1.02	0	0	1	19	0.5	147	3.5	13.6	7300	6.4	0	0
70	1.025	0	0	1	36	1.1	150	3.5	14.5	9400	6.1	0	0
70	1.025	0	0	1	20	1	142	4.8	16.1	9600	4.5	0	0
80	1.02	0	0	1	49	0.9	139	3.3	17.5	9900	4.7	0	0
60	1.02	0	0	1	47	1.1	141	4.9	15	7000	5.2	0	0
60	1.02	0	0	1	37	0.6	150	5	13.6	5800	4.5	0	0
60	1.025	0	0	1	17	0.4	147	4.7	14.6	6800	5.1	0	0
60	1.02	0	0	1	24	0.8	145	5	15	6300	4.6	0	0
70	1.025	0	0	1	38	0.5	144	4.8	17.1	7400	6.1	0	0
70	1.025	0	0	1	16	1.1	140	3.6	13.6	11000	4.9	0	0
60	1.02	0	0	1	22	1.2	138	3.5	13	5200	5.6	0	0
60	1.02	0	0	1	50	0.6	147	3.7	17.2	6000	4.5	0	0
60	1.025	0	0	1	39	0.5	135	3.9	14.7	5800	6.2	0	0
80	1.02	0	0	1	16	0.7	138	3.5	13.7	5400	5.8	0	0
80	1.025	0	0	1	19	1.1	144	5	15	10300	4.8	0	0
80	1.025	0	0	1	40	0.5	137.53	4.63	17.8	5900	5.2	0	0
80	1.025	0	0	1	44	0.7	137	3.5	14.8	9300	4.7	0	0
80	1.02	0	0	1	46	1	145	3.5	12.53	10700	6.3	0	0
80	1.025	0	0	1	15	0.5	141	3.6	15	10500	5.3	0	0
60	1.025	0	0	1	41	1.1	139	3.8	17.4	6700	6.1	0	0
80	1.025	0	0	1	42	0.7	146	5	14.9	9400	5.9	0	0
70	1.02	0	0	1	48	0.8	144	3.5	13.6	10300	4.8	0	0
70	1.02	0	0	1	42	1.2	139	3.7	16.2	9300	5.4	0	0
60	1.025	0	0	1	50	0.5	145	5	17.6	6500	5	0	0
60	1.02	0	0	1	26	0.9	150	4.9	15	10500	5.5	0	0
70	1.025	0	0	1	38	1	142	3.6	13.7	9200	4.9	0	0
80	1.025	0	0	1	44	1.2	146	3.6	16.3	8000	6.4	0	0
80	1.02	0	0	1	41	0.5	143	4.5	15.1	9700	5.6	0	0
70	1.025	0	0	1	16	1.1	147	3.5	16.4	9100	5.2	0	0
70	1.02	0	0	1	27	0.7	145	4.8	13.8	6400	4.8	0	0
60	1.025	0	0	1	57	0.9	140	4.8	15.2	7700	5.5	0	0
80	1.025	0	0	1	45	0.6	138	3.5	16.1	5400	5.7	0	0
60	1.02	0	0	1	23	1.1	139	3.5	15.3	6500	4.9	0	0
70	1.025	0	0	1	47	0.5	142	4.8	16.6	5800	5.9	0	0
80	1.025	0	0	1	22	0.8	137	5	16.8	6000	6.5	0	0
80	1.025	0	0	1	46	0.7	141	4.9	13.9	5100	5	0	0
60	1.02	0	0	1	18	1.1	150	4.7	15.4	11000	4.5	0	0
70	1.02	0	0	1	25	0.6	146	4.9	16.5	8000	5.1	0	0
70	1.025	0	0	1	47	0.5	142	3.5	16.4	5700	6.5	0	0
80	1.025	0	0	1	17	0.9	136	3.9	16.7	6200	5.2	0	0
80	1.02	0	0	1	15	1.2	144	3.7	15.5	9500	6.4	0	0
80	1.025	0	0	1	48	0.7	140	5	17	7200	5.8	0	0
80	1.025	0	0	1	25	0.8	135	3.7	15	6300	5.3	0	0
80	1.025	0	0	1	16	1.1	142	4.1	15.6	5800	6.3	0	0
80	1.02	0	0	1	48	1.2	147	4.3	14.8	6600	5.5	0	0
60	1.025	0	0	1	45	0.7	141	4.4	13	7400	5.4	0	0
80	1.02	0	0	1	46	0.8	139	5	14.1	9500	4.6	0	0
80	1.02	0	0	1	49	0.5	150	4.9	15.7	6700	4.9	0	0
70	1.025	0	0	1	31	1.2	141	3.5	16.5	7800	6.2	0	0
80	1.02	0	0	1	26	0.6	137	4.4	15.8	6600	5.4	0	0
60	1.025	0	0	1	50	1	135	4.9	14.2	7200	5.9	0	0
80	1.025	0	0	1	18	1.1	141	3.5	15.8	6800	6.1	0	0
